{
  "count": 8624,
  "first": "http://hubeau.eaufrance.fr/api/v1/hydrometrie/observations_tr?code_entite=Y230002001&grandeur_hydro=H&cursor=&size=4",
  "prev": null,
  "next": "http://hubeau.eaufrance.fr/api/v1/hydrometrie/observations_tr?code_entite=Y230002001&grandeur_hydro=H&cursor=AoJwgObel%2B8CPwxZMjMwMDAyMF9ZMjMwMDAyMDAxX0hfNF8yMDE5LTEyLTIyVDIxOjIwOjAw&size=4",
  "api_version": "1.0.1",
  "data": [
    {
      "code_site": "Y2300020",
      "code_station": "Y230002001",
      "grandeur_hydro": "H",
      "date_debut_serie": "2019-12-22T00:05:01Z",
      "date_fin_serie": "2019-12-22T21:35:00Z",
      "statut_serie": 4,
      "code_systeme_alti_serie": 31,
      "date_obs": "2019-12-22T21:35:00Z",
      "resultat_obs": 3336,
      "code_methode_obs": 0,
      "libelle_methode_obs": "Mesure",
      "code_qualification_obs": 16,
      "libelle_qualification_obs": "Non qualifiée",
      "continuite_obs_hydro": true,
      "longitude": 3.470099834,
      "latitude": 43.570381215
    },
    {
      "code_site": "Y2300020",
      "code_station": "Y230002001",
      "grandeur_hydro": "H",
      "date_debut_serie": "2019-12-22T00:05:01Z",
      "date_fin_serie": "2019-12-22T21:30:00Z",
      "statut_serie": 4,
      "code_systeme_alti_serie": 31,
      "date_obs": "2019-12-22T21:30:00Z",
      "resultat_obs": 3338,
      "code_methode_obs": 0,
      "libelle_methode_obs": "Mesure",
      "code_qualification_obs": 16,
      "libelle_qualification_obs": "Non qualifiée",
      "continuite_obs_hydro": true,
      "longitude": 3.470099834,
      "latitude": 43.570381215
    },
    {
      "code_site": "Y2300020",
      "code_station": "Y230002001",
      "grandeur_hydro": "H",
      "date_debut_serie": "2019-12-22T00:05:01Z",
      "date_fin_serie": "2019-12-22T21:25:00Z",
      "statut_serie": 4,
      "code_systeme_alti_serie": 31,
      "date_obs": "2019-12-22T21:25:00Z",
      "resultat_obs": 3335,
      "code_methode_obs": 0,
      "libelle_methode_obs": "Mesure",
      "code_qualification_obs": 16,
      "libelle_qualification_obs": "Non qualifiée",
      "continuite_obs_hydro": true,
      "longitude": 3.470099834,
      "latitude": 43.570381215
    },
    {
      "code_site": "Y2300020",
      "code_station": "Y230002001",
      "grandeur_hydro": "H",
      "date_debut_serie": "2019-12-22T00:05:01Z",
      "date_fin_serie": "2019-12-22T21:25:00Z",
      "statut_serie": 4,
      "code_systeme_alti_serie": 31,
      "date_obs": "2019-12-22T21:20:00Z",
      "resultat_obs": 26000,
      "code_methode_obs": 0,
      "libelle_methode_obs": "Mesure",
      "code_qualification_obs": 16,
      "libelle_qualification_obs": "Non qualifiée",
      "continuite_obs_hydro": true,
      "longitude": 3.470099834,
      "latitude": 43.570381215
    }
  ]
}
